........................
----------------------------------------------------------------------
Ran 24 tests in 0.540s

OK
Name             Stmts   Miss Branch BrPart  Cover   Missing
------------------------------------------------------------
Collatz.py          60      3     28      1    95%   109-110, 114, 113->114
TestCollatz.py      98      0      0      0   100%
------------------------------------------------------------
TOTAL              158      3     28      1    98%
